Backoffice:
	admin bruger:
		npbhdk@gmail.com
		1234567890

	editor:
		niels@npbh.dk
		1234567890


	author:
		niels2@npbh.dk
		1234567890


Members:
	active member:
	npbhdk
	1234567890

	
	guest member:
	testbruger
	1234567890



bitbucket repository:
https://bitbucket.org/npbh/aarhus-web-developer-corporation/